vhdl xil_defaultlib  \
"../../../../Atelier2.gen/sources_1/bd/Atelier2/ip/Atelier2_proc_sys_reset_0_0/sim/Atelier2_proc_sys_reset_0_0.vhd" \
"../../../../Atelier2.gen/sources_1/bd/Atelier2/ip/Atelier2_v_tc_0_0/sim/Atelier2_v_tc_0_0.vhd" \
"../../../../Atelier2.gen/sources_1/bd/Atelier2/ipshared/d57c/src/ClockGen.vhd" \
"../../../../Atelier2.gen/sources_1/bd/Atelier2/ipshared/d57c/src/SyncAsync.vhd" \
"../../../../Atelier2.gen/sources_1/bd/Atelier2/ipshared/d57c/src/SyncAsyncReset.vhd" \
"../../../../Atelier2.gen/sources_1/bd/Atelier2/ipshared/d57c/src/DVI_Constants.vhd" \
"../../../../Atelier2.gen/sources_1/bd/Atelier2/ipshared/d57c/src/OutputSERDES.vhd" \
"../../../../Atelier2.gen/sources_1/bd/Atelier2/ipshared/d57c/src/TMDS_Encoder.vhd" \
"../../../../Atelier2.gen/sources_1/bd/Atelier2/ipshared/d57c/src/rgb2dvi.vhd" \
"../../../../Atelier2.gen/sources_1/bd/Atelier2/ip/Atelier2_rgb2dvi_0_0/sim/Atelier2_rgb2dvi_0_0.vhd" \
"../../../../Atelier2.gen/sources_1/bd/Atelier2/ip/Atelier2_v_proc_ss_0_0/bd_1/ip/ip_1/sim/bd_4ae3_psr_aclk_0.vhd" \
"../../../../Atelier2.gen/sources_1/bd/Atelier2/ip/Atelier2_v_proc_ss_0_0/bd_0/ip/ip_4/sim/bd_1093_rst_axis_0.vhd" \
"../../../../Atelier2.gen/sources_1/bd/Atelier2/ip/Atelier2_v_proc_ss_0_0/bd_0/ip/ip_5/sim/bd_1093_reset_sel_axis_0.vhd" \
"../../../../Atelier2.gen/sources_1/bd/Atelier2/ip/Atelier2_v_proc_ss_0_0/bd_0/sim/bd_1093.vhd" \
"../../../../Atelier2.gen/sources_1/bd/Atelier2/ip/Atelier2_v_proc_ss_0_0/sim/Atelier2_v_proc_ss_0_0.vhd" \
"../../../../Atelier2.gen/sources_1/bd/Atelier2/ip/Atelier2_smartconnect_0_0/bd_0/ip/ip_1/sim/bd_3d7a_psr0_0.vhd" \
"../../../../Atelier2.gen/sources_1/bd/Atelier2/ip/Atelier2_smartconnect_0_0/bd_0/ip/ip_2/sim/bd_3d7a_psr_aclk_0.vhd" \
"../../../../Atelier2.gen/sources_1/bd/Atelier2/ip/Atelier2_smartconnect_0_0/bd_0/ip/ip_3/sim/bd_3d7a_psr_aclk1_0.vhd" \
"../../../../Atelier2.gen/sources_1/bd/Atelier2/ip/Atelier2_testPatternGenerator_0_0/sim/Atelier2_testPatternGenerator_0_0.vhd" \
"../../../../Atelier2.gen/sources_1/bd/Atelier2/ipshared/b523/hdl/myColorRegister_v1_0_S00_AXI.vhd" \
"../../../../Atelier2.gen/sources_1/bd/Atelier2/ipshared/b523/hdl/myColorRegister_v1_0.vhd" \
"../../../../Atelier2.gen/sources_1/bd/Atelier2/ip/Atelier2_myColorRegister_1_0/sim/Atelier2_myColorRegister_1_0.vhd" \
"../../../../Atelier2.gen/sources_1/bd/Atelier2/sim/Atelier2.vhd" \

nosort
